<?xml version="1.0" encoding="UTF-8" standalone="no"?>
<svg width="188px" height="39px" viewBox="0 0 188 39" version="1.1" xmlns="http://www.w3.org/2000/svg" xmlns:xlink="http://www.w3.org/1999/xlink">
    <!-- Generator: sketchtool 3.7.1 (28215) - http://www.bohemiancoding.com/sketch -->
    <title>D2D10D43-C47B-4DA2-8FA0-DFCC2A490136</title>
    <desc>Created with sketchtool.</desc>
    <defs></defs>
    <g id="Page-1" stroke="none" stroke-width="1" fill="none" fill-rule="evenodd">
        <g id="icons" transform="translate(-100.000000, -55.000000)">
            <g id="logo" transform="translate(100.000000, 60.000000)">
                <path d="M129.840015,13.6425609 C131.376504,13.6425609 133.029637,14.0792565 134.811481,14.7127348 C137.513074,15.6764304 140.677222,16.4689522 140.677222,16.4689522 C146.48397,17.3207783 153.307,19.9274739 154.658467,20.3237348 C155.350289,20.5259087 156.071607,20.6863 156.628015,20.6863 C157.153585,20.6863 157.534356,20.5407348 157.585304,20.1525609 C157.696585,19.3600391 156.457741,19.3600391 155.670726,19.3600391 C154.88103,19.3600391 153.474593,18.7926043 153.474593,18.7926043 C153.474593,18.7926043 149.804985,16.5835174 148.568822,15.734387 C147.327296,14.8825609 147.047081,14.1439522 148.005711,13.9754739 C148.190733,13.9431261 148.378437,13.9269522 148.559437,13.9269522 C149.299526,13.9269522 149.99403,14.1560826 150.762274,14.2019087 C151.727607,14.2585174 152.179437,14.1439522 152.912822,14.7127348 C153.154156,14.9014304 153.352585,14.9647783 153.512133,14.9647783 C153.83257,14.9647783 153.981393,14.7127348 153.981393,14.7127348 C153.981393,14.7127348 155.165267,13.9188652 155.554081,13.2961696 C155.9496,12.6721261 155.611733,12.3890826 155.611733,12.3890826 C155.611733,12.3890826 155.386489,11.8216478 154.769748,10.2352565 C154.224067,8.83082174 152.481104,8.57877826 151.935422,8.57877826 C151.861681,8.57877826 151.806711,8.58416957 151.785259,8.5909087 C151.758444,8.5963 151.727607,8.59899565 151.708837,8.59899565 C151.522474,8.59899565 151.383037,8.41973478 151.383037,8.41973478 L150.821267,7.68516957 C150.821267,7.68516957 149.148022,9.0559087 147.918563,9.0559087 C147.852867,9.0559087 147.788511,9.05321304 147.722815,9.04512609 C145.526681,8.74321304 145.4154,7.51264783 139.382067,6.77538696 C138.367126,6.65273478 137.279785,6.60151739 136.144178,6.60151739 C130.513067,6.60151739 123.982319,7.89003913 122.860119,8.08143043 C122.557111,8.1313 122.212541,8.15016957 121.854563,8.15016957 C120.615719,8.15016957 119.246822,7.91025652 119.246822,7.91025652 C116.055859,7.49512609 112.741548,7.35495217 109.759741,7.35495217 C103.773333,7.35495217 99.0633111,7.91025652 99.0633111,7.91025652 C99.0633111,7.91025652 97.2063852,8.13803913 97.3163259,8.70412609 C97.4302889,9.27156087 98.9506889,9.27156087 98.9506889,9.27156087 L99.2791704,9.27425652 C100.086296,9.26347391 104.693081,8.65695217 108.145489,8.65695217 L108.248726,8.65695217 C111.702474,8.66773478 115.744807,8.98851739 115.744807,8.98851739 L115.783689,8.98851739 C116.354844,8.98851739 118.588519,9.19877826 119.348719,9.3659087 C120.137074,9.53977826 120.4736,9.89425652 120.643874,10.1584304 C120.812807,10.4226043 120.736385,10.7339522 120.417289,11.1800826 C120.099533,11.6275609 118.607289,12.7759087 117.801504,13.3150391 C117.238393,13.6870391 116.486237,13.7692565 115.699222,13.7692565 C115.341244,13.7692565 114.985948,13.7530826 114.62797,13.7396043 C114.59043,13.7382565 114.55423,13.7382565 114.526074,13.7382565 C113.446778,13.7382565 113.005674,14.4377783 113.005674,14.4377783 C111.327067,16.1036913 109.852252,16.9204739 109.4688,17.1374739 C109.074622,17.3544739 108.492741,17.6887348 108.1656,17.9515609 C107.835778,18.2157348 106.70017,18.5136043 106.017733,18.570213 C105.329933,18.6308652 105.276304,18.927387 105.276304,18.927387 L104.768163,19.7886478 C104.477222,20.2428652 105.001452,20.2698217 105.001452,20.2698217 C105.611489,20.3736043 106.129015,20.4248217 106.588889,20.4248217 C108.409615,20.4248217 109.310593,19.6269087 111.644822,18.2157348 C113.633141,17.0134739 114.7902,16.7546913 115.943237,16.7546913 C116.534504,16.7546913 117.12443,16.8220826 117.837704,16.8679087 C118.297578,16.8935174 118.749407,16.9150826 119.207941,16.9150826 C120.334163,16.9150826 121.440274,16.7843435 122.405607,16.3004739 C123.758415,15.6184739 125.391437,14.8259522 127.539304,14.0334304 C128.271348,13.7611696 129.040933,13.6425609 129.840015,13.6425609 M163.1172,23.7189087 L81.4888815,23.7189087 L98.6597481,0.6293 L180.289407,0.6293 L163.1172,23.7189087" id="Fill-4" fill="#DF1828"></path>
                <path d="M29.4587556,30.8879957 L29.0364222,30.8879957 C28.9425704,30.8879957 28.9238,30.8758652 28.8876,30.7976913 L27.7144519,28.5926478 C27.517363,28.2327783 27.4141259,28.0049957 27.3484296,27.7138652 L27.331,27.7138652 C27.331,27.7974304 27.3484296,28.1276478 27.3484296,28.4241696 L27.3484296,30.7518652 C27.3484296,30.8704739 27.331,30.8879957 27.217037,30.8879957 L26.7477778,30.8879957 C26.6351556,30.8879957 26.6163852,30.8704739 26.6163852,30.7518652 L26.6163852,26.5938217 C26.6163852,26.4779087 26.6351556,26.460387 26.7477778,26.460387 L27.2733481,26.460387 C27.3685407,26.460387 27.3859704,26.4725174 27.4235111,26.5426043 L28.484037,28.5468217 C28.6623556,28.8905174 28.784363,29.219387 28.8594444,29.4862565 L28.8782148,29.4862565 C28.8782148,29.2800391 28.8594444,28.8271696 28.8594444,28.645213 L28.8594444,26.5938217 C28.8594444,26.4779087 28.8876,26.460387 28.9894963,26.460387 L29.4587556,26.460387 C29.5727185,26.460387 29.6008741,26.4779087 29.6008741,26.5938217 L29.6008741,30.7518652 C29.6008741,30.8704739 29.5821037,30.8879957 29.4587556,30.8879957 Z M18.0316222,30.8879957 L15.9172741,30.8879957 C15.8073333,30.8879957 15.7805185,30.8704739 15.7805185,30.7518652 L15.7805185,26.5938217 C15.7805185,26.4779087 15.8073333,26.460387 15.9172741,26.460387 L18.022237,26.460387 C18.1522889,26.460387 18.1898296,26.4725174 18.1898296,26.5318217 L18.1630148,26.6194304 L18.0410074,27.0547783 C18.022237,27.1518217 17.9471556,27.157213 17.9002296,27.157213 L16.6493185,27.157213 L16.6493185,28.2260391 L17.7393407,28.2260391 C17.8626889,28.2260391 17.8814593,28.2435609 17.8814593,28.3621696 L17.8814593,28.7880826 C17.8814593,28.9039957 17.8533037,28.9215174 17.7393407,28.9215174 L16.6493185,28.9215174 L16.6493185,30.1911696 L18.022237,30.1911696 C18.1429037,30.1911696 18.1630148,30.2086913 18.1630148,30.3273 L18.1630148,30.7518652 C18.1630148,30.8704739 18.1429037,30.8879957 18.0316222,30.8879957 Z M61.9154074,30.9998652 C60.7798,30.9998652 60.1885333,30.2626043 60.1885333,28.6977783 C60.1885333,27.1639522 60.7798,26.3525609 61.9261333,26.3525609 C62.5066741,26.3525609 63.1260963,26.6342565 63.1260963,26.7447783 L63.0872148,26.8418217 L62.8820815,27.2690826 L62.8056593,27.3324304 C62.7694593,27.3324304 62.4128222,27.0480391 61.9717185,27.0480391 C61.3160963,27.0480391 61.1082815,27.6639957 61.1082815,28.6519522 C61.1082815,29.6628217 61.2678296,30.3003435 61.9717185,30.3003435 C62.2063481,30.3003435 62.3766222,30.2235174 62.4329333,30.1979087 L62.4329333,29.2598217 L61.9449037,29.2598217 C61.8403259,29.2598217 61.8121704,29.2409522 61.8121704,29.126387 L61.8121704,28.6977783 C61.8121704,28.5818652 61.8403259,28.5616478 61.9449037,28.5616478 L63.0711259,28.5616478 C63.1730222,28.5616478 63.2011778,28.5818652 63.2011778,28.6977783 L63.2011778,30.4957783 C63.2011778,30.7680391 62.4409778,30.9998652 61.9154074,30.9998652 Z M73.2326,30.8879957 L72.6413333,30.8879957 C72.5287111,30.8879957 72.5005556,30.8704739 72.5005556,30.7518652 L72.5005556,29.0724739 L71.2885259,26.7164739 L71.2509852,26.5830391 L71.3823778,26.5102565 L72.0312963,26.4078217 L72.0956519,26.4024304 L72.1895037,26.4859957 L72.7164148,27.591213 C72.7807704,27.746213 72.8840074,27.9605174 72.9698148,28.2947783 L72.9859037,28.2947783 C73.0998667,27.9160391 73.1856741,27.7138652 73.2688,27.5413435 L73.7474444,26.5318217 C73.8037556,26.4024304 73.8211852,26.4024304 73.8520222,26.4024304 L73.9539185,26.413213 L74.4982593,26.5318217 L74.6108815,26.6140391 L74.5652963,26.7164739 L73.372037,29.0724739 L73.372037,30.7518652 C73.372037,30.8704739 73.3452222,30.8879957 73.2326,30.8879957 Z M40.5600889,30.8879957 L38.449763,30.8879957 C38.3358,30.8879957 38.3076444,30.8704739 38.3076444,30.7518652 L38.3076444,26.5938217 C38.3076444,26.4779087 38.3358,26.460387 38.449763,26.460387 L40.5600889,26.460387 C40.6807556,26.460387 40.7182963,26.4725174 40.7182963,26.5318217 L40.6995259,26.6194304 L40.5788593,27.0547783 C40.5507037,27.1518217 40.4742815,27.157213 40.4273556,27.157213 L39.1804667,27.157213 L39.1804667,28.2260391 L40.2704889,28.2260391 C40.3911556,28.2260391 40.4099259,28.2435609 40.4099259,28.3621696 L40.4099259,28.7880826 C40.4099259,28.9039957 40.3817704,28.9215174 40.2704889,28.9215174 L39.1804667,28.9215174 L39.1804667,30.1911696 L40.5600889,30.1911696 C40.6727111,30.1911696 40.6901407,30.2086913 40.6901407,30.3273 L40.6901407,30.7518652 C40.6901407,30.8704739 40.6727111,30.8879957 40.5600889,30.8879957 Z" id="Fill-9" fill="#231F1F"></path>
                <path d="M51.3114889,31 C51.2739481,31 51.228363,30.9218261 51.1626667,30.7991739 L50.2898444,29.0604783 L49.9801333,29.0604783 L49.9801333,30.7533478 C49.9801333,30.8706087 49.961363,30.8894783 49.8487407,30.8894783 L49.2494296,30.8894783 C49.1448519,30.8894783 49.1166963,30.8706087 49.1166963,30.7533478 L49.1166963,26.5939565 C49.1166963,26.4780435 49.1448519,26.4605217 49.2494296,26.4605217 L50.2898444,26.4605217 C50.7872593,26.4605217 51.7901333,26.4942174 51.7901333,27.7086087 C51.7901333,28.5415652 51.2940593,28.7814783 51.0594296,28.9054783 L52.0153778,30.6306957 L52.0730296,30.7533478 L51.9402963,30.8328696 L51.3972963,30.9865217 L51.3114889,31 Z M49.9801333,27.1411739 L49.9801333,28.3784783 L50.1477259,28.3784783 C50.5714,28.3784783 50.928037,28.3151304 50.928037,27.722087 C50.928037,27.1573478 50.5526296,27.1411739 50.2241481,27.1411739 L49.9801333,27.1411739 Z" id="Combined-Shape" fill="#231F1F"></path>
                <path d="M25.3038,12.3176478 L23.5943556,12.3163 L25.2461481,10.1045174 L26.5600741,10.1045174 C26.5600741,10.1045174 26.5882296,10.1018217 26.6351556,10.1018217 C26.8416296,10.1018217 27.4141259,10.138213 27.5267481,10.5183 C27.6956815,11.099213 27.0293333,11.8337783 26.7303481,12.0116913 C26.4005259,12.2071261 25.8937259,12.3176478 25.3038,12.3176478 M75.5105185,12.4160391 L71.7028148,12.4160391 L73.2218741,10.3525174 L75.7840296,10.3525174 C76.1218963,10.3525174 76.3189852,10.495387 76.3846815,10.7231696 C76.4691481,10.9967783 76.3283704,11.2286043 76.3283704,11.2286043 L75.5105185,12.4160391 M68.8778741,16.2061261 L72.4147481,16.2061261 L70.5940222,18.6106478 L75.7840296,18.6106478 C75.7840296,18.6106478 80.5315926,12.5845174 80.8989556,12.0426913 C81.2716815,11.502213 81.9755704,9.77564783 81.0008519,8.11647391 C80.0998741,6.58264783 78.0740148,6.52603913 77.7723481,6.52603913 L70.8956889,6.52603913 L61.907363,18.6106478 L67.0289926,18.6106478 L68.8778741,16.2061261 M52.748763,6.55838696 L43.6934,18.679387 L48.6755926,18.679387 L53.2931037,12.8891261 L53.5558889,15.7316913 L58.7727111,13.0603 L54.5306074,18.6443435 L59.7568148,18.6443435 L68.774637,6.52603913 L62.8150444,6.52603913 L57.5620222,9.67456087 L57.2241556,6.55838696 L52.748763,6.55838696 M30.1063333,6.6176913 C30.0312519,6.6176913 29.9950519,6.61903913 29.9950519,6.61903913 L22.112837,6.6486913 L13.2277481,18.7009522 L18.1898296,18.6915174 L20.349763,15.9999087 L25.0879407,15.9999087 C25.2086074,16.0066478 25.3319556,16.0079957 25.453963,16.0079957 C28.9988815,16.0079957 30.4173852,13.8083435 30.4173852,13.8083435 L32.1429185,11.4590826 C32.1429185,11.4590826 33.334837,9.82551739 32.7060296,8.13399565 C32.1804593,6.71877826 30.5662074,6.6176913 30.1063333,6.6176913 M37.0232148,6.55838696 L31.4028296,14.0401696 C31.4028296,14.0401696 30.3878889,15.3947348 30.8571481,16.7479522 C31.3357926,18.1025174 32.6778741,18.8128217 33.8604074,18.9139087 L36.5164148,19.0500391 C36.5164148,19.0500391 36.7309333,19.0621696 37.0594148,19.0621696 C37.8477704,19.0621696 39.3199037,18.9947783 40.3536148,18.5432565 C41.8351333,17.8989957 43.1866,16.5457783 43.3568741,16.3422565 C43.5244667,16.1400826 50.7953037,6.52603913 50.7953037,6.52603913 L45.1011778,6.52603913 L39.5169926,14.277387 C39.5169926,14.277387 38.945837,15.1561696 37.6989481,15.1561696 C37.0875704,15.1561696 36.3193259,14.4458652 37.1626519,13.4983435 C37.5099037,13.1047783 42.4451704,6.55838696 42.4451704,6.55838696 L37.0232148,6.55838696 M81.4888815,23.7202565 L0,23.7202565 L17.1722074,0.630647826 L98.7991852,0.630647826 L98.6597481,0.630647826 L81.4888815,23.7202565" id="Fill-1" fill="#007549"></path>
            </g>
        </g>
    </g>
</svg>